Biorxiv_data_48
…
## Joining, by = "setting"

## # A tibble: 36 x 13
##    importa~1 auroc  aupr aupr_~2 sensi~3 speci~4 mean_~5 pears~6 spear~7 pearson
##    <chr>     <dbl> <dbl>   <dbl>   <dbl>   <dbl>   <dbl>   <dbl>   <dbl>   <dbl>
##  1 auroc         1     1   0.667     0.5     0.5    1.31   0.344   0.477   0.757
##  2 aupr          1     1   0.667     0.5     0.5    1.31   0.357   0.477   0.771
##  3 aupr_cor~     1     1   0.667     0.5     0.5    1.31   0.357   0.477   0.771
##  4 sensitiv~     1     1   0.667     0.5     0.5    1.31   0.196   0.477   0.539
##  5 specific~     1     1   0.667     0.5     0.5    1.31   0.387   0.477   0.800
##  6 mean_ran~     1     1   0.667     0.5     0.5    1.31   0.349   0.477   0.763
##  7 auc_ireg~     1     1   0.667     0.5     0.5    1.31   0.375   0.477   0.788
##  8 auc_ireg~     1     1   0.667     0.5     0.5    1.31   0.386   0.477   0.798
##  9 pearson_~     1     1   0.667     0.5     0.5    1.31   0.422   0.477   0.829
## 10 spearman~     1     1   0.667     0.5     0.5    1.31   0.350   0.477   0.763
## # ... with 26 more rows, 3 more variables: spearman <dbl>, setting <chr>,
## #   ligand <chr>, and abbreviated variable names 1: importance_measure,
## #   2: aupr_corrected, 3: sensitivity_roc, 4: specificity_roc,
## #   5: mean_rank_GST_log_pval, 6: pearson_log_pval, 7: spearman_log_pval
…
