Bioxrvir_with_ANANSE_24
…
## # A tibble: 6 x 4
##   from  to      source           database      
##   <chr> <chr>   <chr>            <chr>         
## 1 KLF2  DLGAP1  harmonizome_CHEA harmonizome_gr
## 2 KLF2  DTNB    harmonizome_CHEA harmonizome_gr
## 3 KLF2  BHLHE40 harmonizome_CHEA harmonizome_gr
## 4 KLF2  RPS6KA1 harmonizome_CHEA harmonizome_gr
## 5 KLF2  PXN     harmonizome_CHEA harmonizome_gr
## 6 KLF2  UBE2V1  harmonizome_CHEA harmonizome_gr
## [1] "grn check"
## $lr_sig
## # A tibble: 2,890,349 x 3
##    from  to     weight
##    <chr> <chr>   <dbl>
##  1 A1BG  ABCC6   1.04 
##  2 A1BG  ADAM10  0.398
##  3 A1BG  ADAM17  0.398
##  4 A1BG  ADAM9   0.398
##  5 A1BG  AGO1    0.398
##  6 A1BG  AKT1    1.06 
##  7 A1BG  ANXA7   2.32 
##  8 A1BG  BAK1    0.557
##  9 A1BG  BCL2L1  0.921
## 10 A1BG  CDKN1A  1.76 
## # ... with 2,890,339 more rows
## 
## $gr
## # A tibble: 4,647,528 x 3
##    from  to     weight
##    <chr> <chr>   <dbl>
##  1 A1BG  A2M     0.505
##  2 AAAS  GFAP    0.488
##  3 AADAC CTAG1B  0.488
##  4 AADAC CYP3A4  0.451
##  5 AADAC DIRAS3  0.488
##  6 AADAC IRF8    0.488
##  7 AADAC MAGEA3  0.488
##  8 AATF  AAMP    0.833
##  9 AATF  AATBC   0.833
## 10 AATF  AATK    0.833
## # ... with 4,647,518 more rows
## 
## [1] "weight check"
##                   EGF         HGF         OSM
## A1BG     0.0067878275 0.006035202 0.007996154
## A1BG-AS1 0.0028660065 0.004545588 0.001858596
## A1CF     0.0052816006 0.005112321 0.004312370
## A2M      0.0160737960 0.017331465 0.048951952
## A2M-AS1  0.0005428556 0.001196676 0.004079289
## A2ML1    0.0035234569 0.003871920 0.002611125
## [1] "ligand_target_matrix check"
## # A tibble: 6 x 4
##   from  to      source           database      
##   <chr> <chr>   <chr>            <chr>         
## 1 KLF2  DLGAP1  harmonizome_CHEA harmonizome_gr
## 2 KLF2  DTNB    harmonizome_CHEA harmonizome_gr
## 3 KLF2  BHLHE40 harmonizome_CHEA harmonizome_gr
## 4 KLF2  RPS6KA1 harmonizome_CHEA harmonizome_gr
## 5 KLF2  PXN     harmonizome_CHEA harmonizome_gr
## 6 KLF2  UBE2V1  harmonizome_CHEA harmonizome_gr
## [1] "grn check"
## $lr_sig
## # A tibble: 2,890,349 x 3
##    from  to     weight
##    <chr> <chr>   <dbl>
##  1 A1BG  ABCC6   1.04 
##  2 A1BG  ADAM10  0.398
##  3 A1BG  ADAM17  0.398
##  4 A1BG  ADAM9   0.398
##  5 A1BG  AGO1    0.398
##  6 A1BG  AKT1    1.06 
##  7 A1BG  ANXA7   2.32 
##  8 A1BG  BAK1    0.557
##  9 A1BG  BCL2L1  0.921
## 10 A1BG  CDKN1A  1.76 
## # ... with 2,890,339 more rows
## 
## $gr
## # A tibble: 4,637,590 x 3
##    from  to     weight
##    <chr> <chr>   <dbl>
##  1 A1BG  A2M     0.505
##  2 AAAS  GFAP    0.488
##  3 AADAC CTAG1B  0.488
##  4 AADAC CYP3A4  0.451
##  5 AADAC DIRAS3  0.488
##  6 AADAC IRF8    0.488
##  7 AADAC MAGEA3  0.488
##  8 AATF  AAMP    0.833
##  9 AATF  AATBC   0.833
## 10 AATF  AATK    0.833
## # ... with 4,637,580 more rows
## 
## [1] "weight check"
##                   EGF         HGF         OSM
## A1BG     0.0067878275 0.006035202 0.007996154
## A1BG-AS1 0.0028660065 0.004545588 0.001858596
## A1CF     0.0052816006 0.005112321 0.004267522
## A2M      0.0160737960 0.017331465 0.048951952
## A2M-AS1  0.0005428556 0.001196676 0.004079289
## A2ML1    0.0035234569 0.003871920 0.002589475
## [1] "ligand_target_matrix check"
## # A tibble: 6 x 4
##   from  to      source           database      
##   <chr> <chr>   <chr>            <chr>         
## 1 KLF2  DLGAP1  harmonizome_CHEA harmonizome_gr
## 2 KLF2  DTNB    harmonizome_CHEA harmonizome_gr
## 3 KLF2  BHLHE40 harmonizome_CHEA harmonizome_gr
## 4 KLF2  RPS6KA1 harmonizome_CHEA harmonizome_gr
## 5 KLF2  PXN     harmonizome_CHEA harmonizome_gr
## 6 KLF2  UBE2V1  harmonizome_CHEA harmonizome_gr
## [1] "grn check"
## $lr_sig
## # A tibble: 2,890,349 x 3
##    from  to     weight
##    <chr> <chr>   <dbl>
##  1 A1BG  ABCC6   1.04 
##  2 A1BG  ADAM10  0.398
##  3 A1BG  ADAM17  0.398
##  4 A1BG  ADAM9   0.398
##  5 A1BG  AGO1    0.398
##  6 A1BG  AKT1    1.06 
##  7 A1BG  ANXA7   2.32 
##  8 A1BG  BAK1    0.557
##  9 A1BG  BCL2L1  0.921
## 10 A1BG  CDKN1A  1.76 
## # ... with 2,890,339 more rows
## 
## $gr
## # A tibble: 4,616,221 x 3
##    from  to     weight
##    <chr> <chr>   <dbl>
##  1 A1BG  A2M     0.505
##  2 AAAS  GFAP    0.488
##  3 AADAC CTAG1B  0.488
##  4 AADAC CYP3A4  0.451
##  5 AADAC DIRAS3  0.488
##  6 AADAC IRF8    0.488
##  7 AADAC MAGEA3  0.488
##  8 AATF  AAMP    0.833
##  9 AATF  AATBC   0.833
## 10 AATF  AATK    0.833
## # ... with 4,616,211 more rows
## 
## [1] "weight check"
##                   EGF         HGF         OSM
## A1BG     0.0067878275 0.006022148 0.007996154
## A1BG-AS1 0.0028660065 0.004545588 0.001858596
## A1CF     0.0052816006 0.005025628 0.004267522
## A2M      0.0160737960 0.017205512 0.048951952
## A2M-AS1  0.0005428556 0.001196676 0.004079289
## A2ML1    0.0035234569 0.003832660 0.002589475
## [1] "ligand_target_matrix check"
## # A tibble: 6 x 4
##   from  to      source           database      
##   <chr> <chr>   <chr>            <chr>         
## 1 KLF2  DLGAP1  harmonizome_CHEA harmonizome_gr
## 2 KLF2  DTNB    harmonizome_CHEA harmonizome_gr
## 3 KLF2  BHLHE40 harmonizome_CHEA harmonizome_gr
## 4 KLF2  RPS6KA1 harmonizome_CHEA harmonizome_gr
## 5 KLF2  PXN     harmonizome_CHEA harmonizome_gr
## 6 KLF2  UBE2V1  harmonizome_CHEA harmonizome_gr
## [1] "grn check"
## $lr_sig
## # A tibble: 2,890,349 x 3
##    from  to     weight
##    <chr> <chr>   <dbl>
##  1 A1BG  ABCC6   1.04 
##  2 A1BG  ADAM10  0.398
##  3 A1BG  ADAM17  0.398
##  4 A1BG  ADAM9   0.398
##  5 A1BG  AGO1    0.398
##  6 A1BG  AKT1    1.06 
##  7 A1BG  ANXA7   2.32 
##  8 A1BG  BAK1    0.557
##  9 A1BG  BCL2L1  0.921
## 10 A1BG  CDKN1A  1.76 
## # ... with 2,890,339 more rows
## 
## $gr
## # A tibble: 4,584,903 x 3
##    from  to     weight
##    <chr> <chr>   <dbl>
##  1 A1BG  A2M     0.505
##  2 AAAS  GFAP    0.488
##  3 AADAC CTAG1B  0.488
##  4 AADAC CYP3A4  0.451
##  5 AADAC DIRAS3  0.488
##  6 AADAC IRF8    0.488
##  7 AADAC MAGEA3  0.488
##  8 AATF  AAMP    0.833
##  9 AATF  AATBC   0.833
## 10 AATF  AATK    0.833
## # ... with 4,584,893 more rows
## 
## [1] "weight check"
##                   EGF         HGF         OSM
## A1BG     0.0067878275 0.005977647 0.007996154
## A1BG-AS1 0.0028660065 0.004545588 0.001858596
## A1CF     0.0052816006 0.005025628 0.004267522
## A2M      0.0160737960 0.017205512 0.048951952
## A2M-AS1  0.0005428556 0.001196676 0.004005619
## A2ML1    0.0035234569 0.003788159 0.002581979
## [1] "ligand_target_matrix check"
## # A tibble: 6 x 4
##   from  to      source           database      
##   <chr> <chr>   <chr>            <chr>         
## 1 KLF2  DLGAP1  harmonizome_CHEA harmonizome_gr
## 2 KLF2  DTNB    harmonizome_CHEA harmonizome_gr
## 3 KLF2  BHLHE40 harmonizome_CHEA harmonizome_gr
## 4 KLF2  RPS6KA1 harmonizome_CHEA harmonizome_gr
## 5 KLF2  PXN     harmonizome_CHEA harmonizome_gr
## 6 KLF2  UBE2V1  harmonizome_CHEA harmonizome_gr
## [1] "grn check"
## $lr_sig
## # A tibble: 2,890,349 x 3
##    from  to     weight
##    <chr> <chr>   <dbl>
##  1 A1BG  ABCC6   1.04 
##  2 A1BG  ADAM10  0.398
##  3 A1BG  ADAM17  0.398
##  4 A1BG  ADAM9   0.398
##  5 A1BG  AGO1    0.398
##  6 A1BG  AKT1    1.06 
##  7 A1BG  ANXA7   2.32 
##  8 A1BG  BAK1    0.557
##  9 A1BG  BCL2L1  0.921
## 10 A1BG  CDKN1A  1.76 
## # ... with 2,890,339 more rows
## 
## $gr
## # A tibble: 4,545,070 x 3
##    from  to     weight
##    <chr> <chr>   <dbl>
##  1 A1BG  A2M     0.505
##  2 AAAS  GFAP    0.488
##  3 AADAC CTAG1B  0.488
##  4 AADAC CYP3A4  0.451
##  5 AADAC DIRAS3  0.488
##  6 AADAC IRF8    0.488
##  7 AADAC MAGEA3  0.488
##  8 AATF  AAMP    0.833
##  9 AATF  AATBC   0.833
## 10 AATF  AATK    0.833
## # ... with 4,545,060 more rows
## 
## [1] "weight check"
##                   EGF          HGF         OSM
## A1BG     0.0064082232 0.0047017510 0.007696702
## A1BG-AS1 0.0026423976 0.0043627592 0.001712441
## A1CF     0.0047180648 0.0034131401 0.003699750
## A2M      0.0158839691 0.0154850581 0.048224022
## A2M-AS1  0.0003169621 0.0006622476 0.003920166
…
